<?xml version="1.0" encoding="utf-8"?>
<!-- Generator: Adobe Illustrator 18.1.1, SVG Export Plug-In . SVG Version: 6.00 Build 0)  -->
<!DOCTYPE svg PUBLIC "-//W3C//DTD SVG 1.1//EN" "http://www.w3.org/Graphics/SVG/1.1/DTD/svg11.dtd">
<svg version="1.1" id="Layer_1" xmlns="http://www.w3.org/2000/svg" xmlns:xlink="http://www.w3.org/1999/xlink" x="0px" y="0px"
	 viewBox="0 0 253.5 16.4" enable-background="new 0 0 253.5 16.4" xml:space="preserve">
<path fill="#FFFFFF" d="M97.8,4.6C96.8,4.2,95.9,4,95.2,4c-1.2,0-1.8,0.5-1.8,1.3c0,0.9,0.6,1.3,2,2c2.1,1,3.3,1.7,3.3,4
	c0,2.5-1.7,4.1-4.7,4.1c-1.1,0-2.2-0.2-3.3-0.6l0.2-2.4c1.1,0.5,2,0.8,3,0.8c1.2,0,1.9-0.6,1.9-1.5c0-1.1-0.8-1.4-2.5-2.3
	c-1.7-0.9-2.8-1.6-2.8-3.6c0-2.4,1.7-4,4.6-4c0.9,0,1.8,0.2,2.8,0.4L97.8,4.6z"/>
<path fill="#FFFFFF" d="M106.3,7.8c-0.5-0.3-1.1-0.5-1.6-0.5c-1.5,0-2.2,0.9-2.2,2.7c0,2,0.8,3.1,2.1,3.1c0.7,0,1.3-0.2,1.9-0.5
	l0.1,2.2c-0.9,0.3-1.9,0.5-2.8,0.5c-2.7,0-4.4-2-4.4-5.2c0-3.2,1.8-5,4.6-5c0.8,0,1.6,0.1,2.4,0.5L106.3,7.8z"/>
<path fill="#FFFFFF" d="M110.3,1v5.4c0.6-0.8,1.4-1.3,2.5-1.3c1.8,0,2.8,1.1,2.8,3.3v6.7h-2.9v-6c0-1-0.3-1.5-1.1-1.5
	c-0.8,0-1.3,0.7-1.3,2v5.6h-2.9V1H110.3z"/>
<path fill="#FFFFFF" d="M121.2,5.2c-2.9,0-4.5,1.8-4.5,5.1c0,3.3,1.7,5.1,4.5,5.1c2.9,0,4.5-1.8,4.5-5.1
	C125.7,7,124.1,5.2,121.2,5.2 M121.2,7.2c0.9,0,1.5,1,1.5,3c0,2-0.6,3-1.5,3c-0.9,0-1.5-1-1.5-3C119.7,8.3,120.3,7.2,121.2,7.2"/>
<path fill="#FFFFFF" d="M129.8,5.4v6c0,1,0.3,1.5,1.1,1.5c0.8,0,1.3-0.7,1.3-2V5.4h2.9v7.7c0,0.7,0,1.4,0.1,2.1h-2.6
	c-0.1-0.5-0.1-1-0.1-1.5c-0.5,1.1-1.5,1.7-2.7,1.7c-1.8,0-2.8-1.1-2.8-3.3V5.4H129.8z"/>
<polygon fill="#FFFFFF" points="138.8,5.4 140.2,12.6 141.7,5.4 144.9,5.4 146.3,12.7 147.7,5.4 150.5,5.4 147.8,15.2 144.7,15.2 
	143.2,7.8 141.6,15.2 138.4,15.2 135.9,5.4 "/>
<path fill="#FFFFFF" d="M153.7,11h5.5c0-0.2,0-0.4,0-0.6c0-3.4-1.6-5.2-4.2-5.2c-2.5,0-4.2,2.1-4.2,5.2c0,3.2,1.8,5,4.9,5
	c1,0,2-0.2,3.1-0.7l-0.1-2.1c-0.9,0.5-1.7,0.8-2.6,0.8C154.6,13.4,153.8,12.6,153.7,11 M156.6,9.4h-2.9c0.1-1.6,0.6-2.3,1.6-2.3
	c0.9,0,1.4,0.7,1.4,1.9C156.6,9.1,156.6,9.2,156.6,9.4"/>
<path fill="#FFFFFF" d="M168.6,15.2h-2.9v-6c0-1-0.3-1.5-1.1-1.5c-0.8,0-1.3,0.7-1.3,2v5.6h-2.9V7.5c0-0.7,0-1.4-0.1-2.1h2.6
	c0.1,0.5,0.1,1,0.1,1.5c0.5-1.1,1.5-1.7,2.7-1.7c1.8,0,2.8,1.1,2.8,3.3V15.2z"/>
<rect x="169.8" y="9" fill="#FFFFFF" width="4.6" height="2.2"/>
<path fill="#FFFFFF" d="M175.8,2v13.1h3.3c4.6,0,7-2.3,7-6.6c0-4.5-2.2-6.6-7-6.6H175.8z M178.8,4.2h0.4c2.6,0,3.8,1.4,3.8,4.4
	c0,2.9-1.3,4.3-3.8,4.3h-0.4V4.2z"/>
<path fill="#FFFFFF" d="M190.3,5.4v6c0,1,0.3,1.5,1.1,1.5c0.8,0,1.3-0.7,1.3-2V5.4h2.9v7.7c0,0.7,0,1.4,0.1,2.1H193
	c-0.1-0.5-0.1-1-0.1-1.5c-0.5,1.1-1.5,1.7-2.7,1.7c-1.8,0-2.8-1.1-2.8-3.3V5.4H190.3z"/>
<path fill="#FFFFFF" d="M200.2,15.2h-2.9V5.4h2.9V15.2z M200.2,3.7h-2.9V1.1h2.9V3.7z"/>
<polygon fill="#FFFFFF" points="203.9,5.4 205.7,12.5 207.5,5.4 210.3,5.4 207.3,15.2 203.8,15.2 200.8,5.4 "/>
<path fill="#FFFFFF" d="M213.4,11h5.5c0-0.2,0-0.4,0-0.6c0-3.4-1.6-5.2-4.2-5.2c-2.5,0-4.2,2.1-4.2,5.2c0,3.2,1.8,5,4.9,5
	c1,0,2-0.2,3.1-0.7l-0.1-2.1c-0.8,0.5-1.7,0.8-2.6,0.8C214.3,13.4,213.5,12.6,213.4,11 M216.2,9.4h-2.9c0.1-1.6,0.6-2.3,1.6-2.3
	c0.9,0,1.4,0.7,1.4,1.9C216.2,9.1,216.2,9.2,216.2,9.4"/>
<rect x="220.1" y="1" fill="#FFFFFF" width="2.8" height="14.2"/>
<path fill="#FFFFFF" d="M232.4,9.5c0-3.1-0.8-4.4-4-4.4c-1,0-2.2,0.2-3.4,0.7l0.2,2.2c0.7-0.6,1.7-0.9,2.5-0.9
	c1.2,0,1.9,0.5,1.9,1.6V9h-1c-3,0-4.6,1.2-4.6,3.4c0,1.8,1.2,3,2.8,3c1.2,0,2.1-0.5,2.9-1.5l0.1,1.3h2.7c-0.1-0.7-0.1-1.3-0.1-2V9.5
	z M229.6,10.6v0.5c0,1.5-0.5,2.3-1.6,2.3c-0.8,0-1.3-0.5-1.3-1.3c0-1,0.7-1.5,2.1-1.5C229,10.5,229.3,10.5,229.6,10.6"/>
<path fill="#FFFFFF" d="M242.2,15.2h-2.9v-6c0-1-0.3-1.5-1.1-1.5c-0.8,0-1.3,0.7-1.3,2v5.6h-2.9V7.5c0-0.7,0-1.4-0.1-2.1h2.6
	c0.1,0.5,0.1,1,0.1,1.5c0.5-1.1,1.5-1.7,2.7-1.7c1.8,0,2.8,1.1,2.8,3.3V15.2z"/>
<path fill="#FFFFFF" d="M249.3,1v5.7c-0.6-1.1-1.4-1.6-2.5-1.6c-2.2,0-3.5,1.7-3.5,5.1c0,3.4,1.3,5.1,3.4,5.1c1.2,0,2-0.6,2.6-1.7
	c0,0.6,0,1.1,0.1,1.5h2.7V1H249.3z M249.3,9.8v0.9c0,1.7-0.6,2.5-1.5,2.5c-1,0-1.5-1-1.5-2.9c0-1.9,0.5-2.9,1.5-2.9
	C248.7,7.3,249.3,8.2,249.3,9.8"/>
<path fill="#FFFFFF" d="M12.9,4c-1.1-0.5-2.2-0.8-3.3-0.8c-3.9,0-6.3,2.5-6.3,6c0,2.7,1.7,4.6,4.3,4.6c0.7,0,1.4-0.1,2.2-0.3
	l0.9-4.2H7.7L8,7.9h4.7l-1.5,6.9c-1.2,0.4-2.4,0.6-3.7,0.6c-1.7,0-3-0.3-4.1-1.1c-1.4-1.1-2.2-2.8-2.2-4.8c0-2.2,0.9-4.3,2.6-5.7
	c1.3-1.2,3.3-1.9,5.7-1.9c1.3,0,2.6,0.2,3.9,0.7L12.9,4z"/>
<path fill="#FFFFFF" d="M22.3,10.8c0.1-0.7,0.2-1.2,0.2-1.7c0-2.3-1.4-3.7-3.6-3.7c-1.5,0-2.8,0.6-3.8,1.8c-0.9,1.1-1.4,2.5-1.4,4
	c0,2.6,1.6,4.3,4.2,4.3c1,0,1.9-0.2,2.9-0.5l0.2-1.5c-0.9,0.4-1.7,0.6-2.6,0.6c-1.8,0-2.9-1-2.9-2.7c0-0.1,0-0.2,0-0.5H22.3z
	 M20.9,9.6h-5.1c0.4-1.9,1.7-3,3.1-3c1.3,0,2.1,0.9,2.1,2.3C21,9.1,20.9,9.3,20.9,9.6"/>
<path fill="#FFFFFF" d="M36.6,15.1h-1.8L36,9.5c0.1-0.3,0.1-0.6,0.1-0.9c0-1.1-0.6-1.7-1.5-1.7c-1.4,0-2.4,1.2-2.9,3.5l-1,4.8h-1.8
	l1.2-5.6c0.1-0.4,0.1-0.8,0.1-1.1c0-1-0.6-1.6-1.5-1.6c-1.4,0-2.5,1.1-2.9,3.3l-1.1,4.9H23l2-9.5h1.6l-0.3,1.5
	c0.9-1.2,1.9-1.7,3.2-1.7c1.3,0,2.1,0.7,2.4,2c0.9-1.4,1.9-2,3.3-2c1.7,0,2.7,1,2.7,2.8c0,0.4,0,0.7-0.1,1.1L36.6,15.1z"/>
<path fill="#FFFFFF" d="M47.5,10.8c0.1-0.7,0.2-1.2,0.2-1.7c0-2.3-1.4-3.7-3.6-3.7c-1.5,0-2.8,0.6-3.8,1.8c-0.9,1.1-1.4,2.5-1.4,4
	c0,2.6,1.6,4.3,4.2,4.3c1,0,1.9-0.2,2.9-0.5l0.2-1.5c-0.9,0.4-1.7,0.6-2.6,0.6c-1.8,0-2.9-1-2.9-2.7c0-0.1,0-0.2,0-0.5H47.5z
	 M46,9.6h-5.1c0.4-1.9,1.7-3,3.1-3c1.3,0,2.1,0.9,2.1,2.3C46.1,9.1,46.1,9.3,46,9.6"/>
<path fill="#FFFFFF" d="M56.9,10.8c0.1-0.7,0.2-1.2,0.2-1.7c0-2.3-1.4-3.7-3.6-3.7c-1.5,0-2.9,0.6-3.8,1.8c-0.9,1.1-1.4,2.5-1.4,4
	c0,2.6,1.6,4.3,4.2,4.3c1,0,1.9-0.2,2.9-0.5l0.1-1.5C54.8,13.8,53.9,14,53,14c-1.8,0-2.8-1-2.8-2.7c0-0.1,0-0.2,0-0.5H56.9z
	 M55.5,9.6h-5.1c0.4-1.9,1.7-3,3.1-3c1.3,0,2.1,0.9,2.1,2.3C55.6,9.1,55.5,9.3,55.5,9.6"/>
<path fill="#FFFFFF" d="M66,15.1h-1.8l1.1-5.2c0.1-0.4,0.1-0.8,0.1-1.2c0-1.2-0.7-1.8-1.7-1.8c-1.5,0-2.8,1.2-3.2,3.5l-1,4.7h-1.8
	l2-9.6h1.6L61,7.2C61.9,6,63,5.4,64.3,5.4c1.8,0,3,1.2,3,3.1c0,0.5-0.1,1.1-0.2,1.8L66,15.1z"/>
<path fill="#FFFFFF" d="M72.5,5.6h2.4L74.6,7h-2.4l-1,4.7c-0.1,0.4-0.1,0.8-0.1,1c0,0.7,0.4,1.1,1.1,1.1c0.3,0,0.6-0.1,1-0.2
	l-0.3,1.4c-0.5,0.1-0.8,0.2-1.2,0.2c-1.6,0-2.5-0.8-2.5-2.2c0-0.3,0-0.7,0.1-1.1L70.5,7h-1.9l0.3-1.4h1.9l0.5-2.3l1.9-0.6L72.5,5.6z
	"/>
<path fill="#FFFFFF" d="M83.2,10.8c0.2-0.7,0.2-1.2,0.2-1.7c0-2.3-1.4-3.7-3.6-3.7C78.3,5.4,77,6,76,7.1c-0.9,1.1-1.4,2.5-1.4,4
	c0,2.6,1.6,4.3,4.2,4.3c1,0,1.9-0.2,2.9-0.5l0.1-1.5C81,13.8,80.1,14,79.2,14c-1.8,0-2.8-1-2.8-2.7c0-0.1,0-0.2,0-0.5H83.2z
	 M81.7,9.6h-5.1c0.4-1.9,1.7-3,3.1-3c1.3,0,2.1,0.9,2.1,2.3C81.8,9.1,81.8,9.3,81.7,9.6"/>
</svg>
